//Temporary sov data, stored in case of slow/no internet//SolarSystemID: allianceID, corpID
//Both IDs replaced by faction ID in NPC space

30000001: 500007, 500007
30000002: 500007, 500007
30000003: 500007, 500007
30000004: 500007, 500007
30000005: 500007, 500007
30000006: 500007, 500007
30000007: 500007, 500007
30000008: 500007, 500007
30000009: 500007, 500007
30000010: 500007, 500007
30000011: 500007, 500007
30000012: 500007, 500007
30000013: 500007, 500007
30000014: 500007, 500007
30000015: 500007, 500007
30000016: 500007, 500007
30000017: 500007, 500007
30000018: 500007, 500007
30000019: 500007, 500007
30000020: 500007, 500007
30000021: 500007, 500007
30000022: 500007, 500007
30000023: 500007, 500007
30000024: 500007, 500007
30000025: 500007, 500007
30000026: 500007, 500007
30000027: 500007, 500007
30000028: 500007, 500007
30000029: 500007, 500007
30000030: 500007, 500007
30000031: 500007, 500007
30000032: 500007, 500007
30000033: 500007, 500007
30000034: 500007, 500007
30000035: 500007, 500007
30000036: 500007, 500007
30000037: 500007, 500007
30000038: 500007, 500007
30000039: 500007, 500007
30000040: 500007, 500007
30000041: 500007, 500007
30000042: 500007, 500007
30000043: 500007, 500007
30000044: 500007, 500007
30000045: 500007, 500007
30000046: 500007, 500007
30000047: 500007, 500007
30000048: 500007, 500007
30000049: 500007, 500007
30000050: 500007, 500007
30000051: 500007, 500007
30000052: 500007, 500007
30000053: 500007, 500007
30000054: 500007, 500007
30000055: 500007, 500007
30000056: 500007, 500007
30000057: 500007, 500007
30000058: 500007, 500007
30000059: 500007, 500007
30000060: 500007, 500007
30000061: 500007, 500007
30000062: 500007, 500007
30000063: 500007, 500007
30000064: 500007, 500007
30000065: 500007, 500007
30000066: 500007, 500007
30000067: 500007, 500007
30000068: 500007, 500007
30000069: 500007, 500007
30000070: 500007, 500007
30000071: 500007, 500007
30000072: 500007, 500007
30000073: 500007, 500007
30000074: 500007, 500007
30000075: 500007, 500007
30000076: 500007, 500007
30000077: 500007, 500007
30000078: 500007, 500007
30000079: 500007, 500007
30000080: 500007, 500007
30000081: 500007, 500007
30000082: 500007, 500007
30000083: 500007, 500007
30000084: 500007, 500007
30000085: 500007, 500007
30000086: 500007, 500007
30000087: 500007, 500007
30000088: 500007, 500007
30000089: 500007, 500007
30000090: 500007, 500007
30000091: 500007, 500007
30000092: 500007, 500007
30000093: 500007, 500007
30000094: 500007, 500007
30000095: 500007, 500007
30000096: 500007, 500007
30000097: 500007, 500007
30000098: 500007, 500007
30000099: 500007, 500007
30000100: 500007, 500007
30000101: 500007, 500007
30000102: 500007, 500007
30000103: 500007, 500007
30000104: 500007, 500007
30000105: 500007, 500007
30000106: 500007, 500007
30000107: 500007, 500007
30000108: 500007, 500007
30000109: 500007, 500007
30000110: 500007, 500007
30000111: 500007, 500007
30000112: 500007, 500007
30000113: 500007, 500007
30000114: 500007, 500007
30000115: 500007, 500007
30000116: 500007, 500007
30000117: 500007, 500007
30000118: 500007, 500007
30000119: 500001, 500001
30000120: 500001, 500001
30000121: 500001, 500001
30000122: 500001, 500001
30000123: 500001, 500001
30000124: 500001, 500001
30000125: 500001, 500001
30000126: 500001, 500001
30000127: 500001, 500001
30000128: 500001, 500001
30000129: 500001, 500001
30000130: 500001, 500001
30000131: 500001, 500001
30000132: 500001, 500001
30000133: 500001, 500001
30000134: 500001, 500001
30000135: 500001, 500001
30000136: 500001, 500001
30000137: 500001, 500001
30000138: 500001, 500001
30000139: 500001, 500001
30000140: 500001, 500001
30000141: 500001, 500001
30000142: 500001, 500001
30000143: 500001, 500001
30000144: 500001, 500001
30000145: 500001, 500001
30000146: 500001, 500001
30000147: 500001, 500001
30000148: 500001, 500001
30000149: 500001, 500001
30000150: 500001, 500001
30000151: 500001, 500001
30000152: 500001, 500001
30000153: 500001, 500001
30000154: 500001, 500001
30000155: 500001, 500001
30000156: 500001, 500001
30000157: 500001, 500001
30000158: 500001, 500001
30000159: 500001, 500001
30000160: 500001, 500001
30000161: 500001, 500001
30000162: 500001, 500001
30000163: 500001, 500001
30000164: 500001, 500001
30000165: 500001, 500001
30000166: 500001, 500001
30000167: 500001, 500001
30000168: 500001, 500001
30000169: 500001, 500001
30000170: 500001, 500001
30000171: 500001, 500001
30000172: 500001, 500001
30000173: 500001, 500001
30000174: 500001, 500001
30000175: 500001, 500001
30000176: 500001, 500001
30000177: 500001, 500001
30000178: 500001, 500001
30000179: 500001, 500001
30000180: 500001, 500001
30000181: 500001, 500001
30000182: 500001, 500001
30000183: 500001, 500001
30000184: 500001, 500001
30000185: 500001, 500001
30000186: 500001, 500001
30000187: 500001, 500001
30000188: 500001, 500001
30000189: 500001, 500001
30000190: 500001, 500001
30000191: 500001, 500001
30000192: 500001, 500001
30000193: 500001, 500001
30000194: 500001, 500001
30000195: 500001, 500001
30000196: 500001, 500001
30000197: 500001, 500001
30000198: 500001, 500001
30000199: 500001, 500001
30000200: 500001, 500001
30000201: 500001, 500001
30000202: 500001, 500001
30000203: 500001, 500001
30000204: 500001, 500001
30000205: 500001, 500001
30000206: 500001, 500001
30000207: 500001, 500001
30000208: 99003549, 98237912
30000209: 99003549, 98237912
30000210: 99003549, 98237912
30000211: 99003549, 98237912
30000212: 99003549, 98237912
30000213: 99003549, 98237912
30000214: 99003549, 98237912
30000215: 99004425, 98315666
30000216: 99004425, 98315666
30000217: 99004425, 98315666
30000218: 99004425, 98315666
30000219: 99004425, 98315666
30000220: 99004425, 98315666
30000221: 99004425, 98315666
30000222: 99003549, 98237912
30000223: 99003549, 98237912
30000224: 99003549, 98237912
30000225: 99004425, 98315666
30000226: 99003549, 98237912
30000227: 99003549, 98237912
30000228: 99004425, 98315666
30000229: 1354830081, 667531913
30000230: 1354830081, 667531913
30000231: 1354830081, 667531913
30000232: 1354830081, 667531913
30000233: 1354830081, 667531913
30000234: 1354830081, 667531913
30000235: 1354830081, 667531913
30000236: 1354830081, 667531913
30000237: 1354830081, 667531913
30000238: 99004425, 98315666
30000239: 1354830081, 667531913
30000240: 1354830081, 667531913
30000241: 1354830081, 667531913
30000242: 1354830081, 667531913
30000243: 99004425, 98315666
30000244: 1354830081, 667531913
30000245: 1354830081, 667531913
30000246: 1354830081, 667531913
30000247: 1354830081, 667531913
30000248: 1354830081, 667531913
30000249: 99002172, 98114328
30000250: 99004425, 98315666
30000251: 1354830081, 667531913
30000252: 1354830081, 667531913
30000253: 1354830081, 667531913
30000254: 1354830081, 667531913
30000255: 1354830081, 667531913
30000256: 1354830081, 667531913
30000257: 1354830081, 667531913
30000258: 1354830081, 667531913
30000259: 1354830081, 667531913
30000260: 1354830081, 667531913
30000261: 99004425, 98315666
30000262: 99004425, 98315666
30000263: 99004425, 98315666
30000264: 99004425, 98315666
30000265: 99004425, 98315666
30000266: 99004425, 98315666
30000267: 99004425, 98315666
30000268: 99003549, 98237912
30000269: 99003549, 98237912
30000270: 99003549, 98237912
30000271: 99003549, 98237912
30000272: 99003549, 98237912
30000273: 99003549, 98237912
30000274: 99003549, 98237912
30000275: 99003549, 98237912
30000276: 99003549, 98237912
30000277: 99003549, 98237912
30000278: 99003549, 98237912
30000279: 99003549, 98237912
30000280: 99003549, 98237912
30000281: 99003549, 98237912
30000282: 99003549, 98237912
30000283: 99003549, 98237912
30000284: 99003549, 98237912
30000285: 99003549, 98237912
30000286: 99003549, 98237912
30000287: 99003549, 98237912
30000288: 99003549, 98237912
30000289: 1354830081, 667531913
30000290: 99003549, 98237912
30000291: 99003549, 98237912
30000292: 99003549, 98237912
30000293: 99003549, 98237912
30000294: 99003549, 98237912
30000295: 99003549, 98237912
30000296: 99003549, 98237912
30000297: 99003549, 98237912
30000298: 99003549, 98237912
30000299: 99003549, 98237912
30000300: 99003549, 98237912
30000301: 99002172, 98114328
30000302: 99002172, 98114328
30000303: 99002172, 98114328
30000304: 99004425, 98315666
30000305: 1354830081, 667531913
30000306: 1354830081, 667531913
30000307: 99003549, 98237912
30000308: 99003549, 98237912
30000309: 99003549, 98237912
30000310: 99003549, 98237912
30000311: 99003549, 98237912
30000312: 99003549, 98237912
30000313: 99003549, 98237912
30000314: 99003549, 98237912
30000315: 99003549, 98237912
30000316: 99003549, 98237912
30000317: 99003746, 98053974
30000318: 99003549, 98237912
30000319: 99003549, 98237912
30000320: 99003549, 98237912
30000321: 99003549, 98237912
30000322: 99003549, 98237912
30000323: 99003549, 98237912
30000324: 99003549, 98237912
30000325: 99003549, 98237912
30000326: 0, 0
30000327: 0, 0
30000328: 0, 0
30000329: 0, 0
30000330: 0, 0
30000331: 0, 0
30000332: 0, 0
30000333: 0, 0
30000334: 0, 0
30000335: 0, 0
30000336: 0, 0
30000337: 0, 0
30000338: 0, 0
30000339: 0, 0
30000340: 0, 0
30000341: 0, 0
30000342: 0, 0
30000343: 0, 0
30000344: 0, 0
30000345: 0, 0
30000346: 0, 0
30000347: 0, 0
30000348: 0, 0
30000349: 0, 0
30000350: 0, 0
30000351: 0, 0
30000352: 0, 0
30000353: 0, 0
30000354: 0, 0
30000355: 0, 0
30000356: 0, 0
30000357: 0, 0
30000358: 0, 0
30000359: 0, 0
30000360: 0, 0
30000361: 0, 0
30000362: 0, 0
30000363: 0, 0
30000364: 0, 0
30000365: 0, 0
30000366: 0, 0
30000367: 0, 0
30000368: 0, 0
30000369: 0, 0
30000370: 0, 0
30000371: 0, 0
30000372: 0, 0
30000373: 0, 0
30000374: 0, 0
30000375: 0, 0
30000376: 0, 0
30000377: 0, 0
30000378: 0, 0
30000379: 0, 0
30000380: 0, 0
30000381: 0, 0
30000382: 0, 0
30000383: 0, 0
30000384: 0, 0
30000385: 0, 0
30000386: 0, 0
30000387: 0, 0
30000388: 0, 0
30000389: 0, 0
30000390: 0, 0
30000391: 0, 0
30000392: 0, 0
30000393: 0, 0
30000394: 0, 0
30000395: 0, 0
30000396: 0, 0
30000397: 0, 0
30000398: 0, 0
30000399: 0, 0
30000400: 0, 0
30000401: 0, 0
30000402: 0, 0
30000403: 0, 0
30000404: 0, 0
30000405: 0, 0
30000406: 0, 0
30000407: 0, 0
30000408: 0, 0
30000409: 0, 0
30000410: 0, 0
30000411: 0, 0
30000412: 0, 0
30000413: 0, 0
30000414: 0, 0
30000415: 0, 0
30000416: 0, 0
30000417: 0, 0
30000418: 0, 0
30000419: 0, 0
30000420: 0, 0
30000421: 0, 0
30000422: 0, 0
30000423: 0, 0
30000424: 0, 0
30000425: 0, 0
30000426: 0, 0
30000427: 0, 0
30000428: 0, 0
30000429: 0, 0
30000430: 0, 0
30000431: 0, 0
30000432: 0, 0
30000433: 99000163, 98008728
30000434: 99000163, 98008728
30000435: 99000163, 98008728
30000436: 99003146, 98133479
30000437: 99000163, 98008728
30000438: 99000163, 98008728
30000439: 99000163, 98008728
30000440: 99004480, 98088052
30000441: 99004480, 98088052
30000442: 0, 0
30000443: 99003615, 98245278
30000444: 99000163, 98008728
30000445: 99004480, 98088052
30000446: 99000163, 98008728
30000447: 99000163, 98008728
30000448: 99003216, 98199503
30000449: 99000614, 98244120
30000450: 99000163, 98008728
30000451: 99000163, 98008728
30000452: 99000163, 98008728
30000453: 99000163, 98008728
30000454: 99000163, 98008728
30000455: 0, 0
30000456: 99000163, 98008728
30000457: 99000163, 98008728
30000458: 99000163, 98008728
30000459: 0, 0
30000460: 99004480, 98348406
30000461: 99004480, 98348406
30000462: 99004480, 98348406
30000463: 99004480, 98348406
30000464: 99004480, 98348406
30000465: 99004480, 98348406
30000466: 99000163, 98008728
30000467: 1727758877, 1727573569
30000468: 99000163, 98008728
30000469: 99000163, 98143621
30000470: 99000163, 98008728
30000471: 99000163, 98008728
30000472: 99000163, 98008728
30000473: 99003216, 98199503
30000474: 99000163, 98008728
30000475: 99000163, 98008728
30000476: 99000163, 98008728
30000477: 99000163, 98008728
30000478: 99003216, 98199503
30000479: 1727758877, 1727573569
30000480: 99000163, 98008728
30000481: 99000163, 98008728
30000482: 99000163, 98008728
30000483: 99000163, 98008728
30000484: 99000163, 98008728
30000485: 99004480, 238942032
30000486: 99004480, 98088052
30000487: 99000163, 98008728
30000488: 99004480, 98088052
30000489: 99004480, 98088052
30000490: 1727758877, 1727573569
30000491: 99000163, 98008728
30000492: 99000163, 98008728
30000493: 99004480, 1097438020
30000494: 99000163, 98008728
30000495: 99000163, 98008728
30000496: 99000163, 98008728
30000497: 99000163, 98008728
30000498: 99000163, 98008728
30000499: 99000163, 98008728
30000500: 99000163, 98008728
30000501: 99000163, 98008728
30000502: 99000163, 98008728
30000503: 99000163, 98008728
30000504: 99000163, 98008728
30000505: 99000163, 98008728
30000506: 99000163, 98008728
30000507: 99000163, 98008728
30000508: 99003216, 98199503
30000509: 99003216, 98199503
30000510: 99003216, 98199503
30000511: 99003216, 98199503
30000512: 99003216, 98199503
30000513: 99003216, 98199503
30000514: 99003216, 98199503
30000515: 1727758877, 1727573569
30000516: 99000163, 98008728
30000517: 1727758877, 1727573569
30000518: 99000163, 98008728
30000519: 99000163, 98008728
30000520: 99003216, 98199503
30000521: 99004480, 98088052
30000522: 99004480, 98088052
30000523: 99004480, 1097438020
30000524: 99004480, 1097438020
30000525: 99004480, 98348406
30000526: 99004480, 1097438020
30000527: 99004480, 98088052
30000528: 99003615, 98245278
30000529: 1086308227, 621832986
30000530: 1086308227, 621832986
30000531: 99000163, 98008728
30000532: 1086308227, 621832986
30000533: 1086308227, 98301753
30000534: 1086308227, 621832986
30000535: 1086308227, 621832986
30000536: 1086308227, 621832986
30000537: 1086308227, 172031431
30000538: 1086308227, 621832986
30000539: 1086308227, 621832986
30000540: 1086308227, 621832986
30000541: 99004004, 98168615
30000542: 1086308227, 621832986
30000543: 1086308227, 621832986
30000544: 99004004, 98168615
30000545: 99004004, 98168615
30000546: 1086308227, 621832986
30000547: 99000163, 98008728
30000548: 1086308227, 621832986
30000549: 99000163, 98008728
30000550: 99000163, 98008728
30000551: 1727758877, 1727573569
30000552: 99000163, 98008728
30000553: 99000163, 98008728
30000554: 386292982, 828800677
30000555: 99001407, 98079302
30000556: 99000163, 98008728
30000557: 1086308227, 621832986
30000558: 1086308227, 621832986
30000559: 99003863, 98141143
30000560: 99000163, 98008728
30000561: 99004383, 98311759
30000562: 99000163, 98008728
30000563: 99004383, 98311759
30000564: 99004383, 98311759
30000565: 99000614, 98244120
30000566: 1086308227, 1673722782
30000567: 1727758877, 1727573569
30000568: 99000614, 98244120
30000569: 1086308227, 1673722782
30000570: 99000614, 98244120
30000571: 1463354890, 1463841432
30000572: 99003581, 1097611545
30000573: 99003581, 98120016
30000574: 99003581, 98049623
30000575: 99003581, 98241771
30000576: 1727758877, 1727573569
30000577: 99003581, 98241771
30000578: 99004927, 98341079
30000579: 99001954, 284395966
30000580: 99001954, 284395966
30000581: 99001954, 284395966
30000582: 99001954, 284395966
30000583: 1086308227, 1673722782
30000584: 99001954, 284395966
30000585: 99001954, 284395966
30000586: 99001954, 284395966
30000587: 1086308227, 98094452
30000588: 1086308227, 98301753
30000589: 1086308227, 98094452
30000590: 1086308227, 98094452
30000591: 1086308227, 621832986
30000592: 1086308227, 98094452
30000593: 1220922756, 98149122
30000594: 99004480, 98088052
30000595: 99004480, 238942032
30000596: 1086308227, 621832986
30000597: 1220922756, 98149122
30000598: 1086308227, 98301753
30000599: 1086308227, 621832986
30000600: 99000163, 98008728
30000601: 99000163, 98008728
30000602: 99000614, 98244120
30000603: 99000614, 98244120
30000604: 99000163, 98008728
30000605: 99000614, 98244120
30000606: 1086308227, 1673722782
30000607: 1086308227, 621832986
30000608: 99000163, 98008728
30000609: 0, 0
30000610: 99000163, 98008728
30000611: 99003500, 1802019581
30000612: 1727758877, 1727573569
30000613: 1411711376, 1139652088
30000614: 1411711376, 1139652088
30000615: 1411711376, 1139652088
30000616: 1727758877, 1727573569
30000617: 1411711376, 1139652088
30000618: 1411711376, 1139652088
30000619: 1411711376, 1139652088
30000620: 1411711376, 1139652088
30000621: 1411711376, 1139652088
30000622: 1411711376, 1139652088
30000623: 1411711376, 1139652088
30000624: 1411711376, 1139652088
30000625: 1463354890, 1463841432
30000626: 1411711376, 1139652088
30000627: 1411711376, 1139652088
30000628: 1411711376, 1139652088
30000629: 1411711376, 1139652088
30000630: 1411711376, 1139652088
30000631: 1411711376, 1139652088
30000632: 1411711376, 1139652088
30000633: 1727758877, 1727573569
30000634: 1411711376, 1139652088
30000635: 1411711376, 1139652088
30000636: 1411711376, 1139652088
30000637: 99003500, 1802019581
30000638: 1411711376, 1139652088
30000639: 1411711376, 1139652088
30000640: 1411711376, 1139652088
30000641: 1411711376, 1139652088
30000642: 1411711376, 1139652088
30000643: 1411711376, 1139652088
30000644: 99003500, 1802019581
30000645: 1411711376, 1139652088
30000646: 1411711376, 1139652088
30000647: 1411711376, 1139652088
30000648: 99003500, 1802019581
30000649: 1072824520, 1072694042
30000650: 1072824520, 1072694042
30000651: 1072824520, 1072694042
30000652: 1072824520, 1072694042
30000653: 1411711376, 1139652088
30000654: 1072824520, 1072694042
30000655: 99003581, 98241771
30000656: 99003216, 98199503
30000657: 99003581, 98241771
30000658: 1354830081, 109788662
30000659: 99000163, 98008728
30000660: 99003581, 98241771
30000661: 99003581, 98241771
30000662: 99003581, 98241771
30000663: 99003581, 98241771
30000664: 99003581, 98241771
30000665: 99000163, 98008728
30000666: 99000163, 98008728
30000667: 99000163, 98008728
30000668: 99003581, 98241771
30000669: 99001407, 98079302
30000670: 99000163, 98008728
30000671: 99000163, 98008728
30000672: 99001407, 98079302
30000673: 99001407, 98079302
30000674: 99000163, 98008728
30000675: 99001407, 98079302
30000676: 99000163, 98008728
30000677: 99001407, 98079302
30000678: 99000163, 98008728
30000679: 99000163, 98008728
30000680: 99001407, 98079302
30000681: 99000614, 98244120
30000682: 99000163, 98008728
30000683: 99001407, 98079302
30000684: 99000163, 98008728
30000685: 99001426, 98000816
30000686: 99001407, 98079302
30000687: 1727758877, 1727573569
30000688: 99001407, 772610540
30000689: 99001407, 98079302
30000690: 0, 0
30000691: 99004060, 98005484
30000692: 99000163, 98008728
30000693: 99003581, 98146153
30000694: 99003581, 98049623
30000695: 99000163, 98008728
30000696: 1399057309, 98360644
30000697: 99000163, 98008728
30000698: 99004927, 98341079
30000699: 386292982, 112548774
30000700: 99000163, 98008728
30000701: 99000163, 98008728
30000702: 99000163, 98008728
30000703: 386292982, 828800677
30000704: 99000163, 98008728
30000705: 1147488332, 98001422
30000706: 1727758877, 1727573569
30000707: 99002703, 98284041
30000708: 99001407, 98079302
30000709: 99001426, 126603879
30000710: 99001407, 98079302
30000711: 99001426, 98356472
30000712: 99001407, 98079302
30000713: 99001426, 98356472
30000714: 99001407, 98079302
30000715: 99000163, 98008728
30000716: 99000163, 98008728
30000717: 99004858, 98351666
30000718: 99004858, 98351666
30000719: 99000163, 98008728
30000720: 99000163, 98008728
30000721: 99001407, 98079302
30000722: 99000163, 98008728
30000723: 99001426, 98356472
30000724: 99000163, 98008728
30000725: 99000163, 98008728
30000726: 99000163, 98008728
30000727: 99000163, 98008728
30000728: 99000163, 98008728
30000729: 99000163, 98008728
30000730: 0, 0
30000731: 0, 0
30000732: 0, 0
30000733: 99001426, 126603879
30000734: 99001426, 126603879
30000735: 99001426, 126603879
30000736: 99000163, 98008728
30000737: 1411711376, 1139652088
30000738: 99000163, 98008728
30000739: 99000163, 98008728
30000740: 1411711376, 1139652088
30000741: 99000163, 98008728
30000742: 99001003, 98065185
30000743: 99003863, 98267644
30000744: 99003863, 98267644
30000745: 99003863, 98267644
30000746: 99003863, 98267644
30000747: 99003863, 98267644
30000748: 99003863, 98267644
30000749: 99003863, 98267644
30000750: 1727758877, 98356064
30000751: 99000163, 98008728
30000752: 1463354890, 98285233
30000753: 99000163, 98008728
30000754: 99000163, 98008728
30000755: 99000163, 98008728
30000756: 99000163, 98008728
30000757: 99000163, 98008728
30000758: 99000163, 98008728
30000759: 99000163, 98008728
30000760: 99000163, 98008728
30000761: 99000163, 98008728
30000762: 99000163, 98008728
30000763: 99000163, 98008728
30000764: 99000163, 98008728
30000765: 99000163, 98008728
30000766: 99000163, 98008728
30000767: 99000163, 98008728
30000768: 99000163, 98008728
30000769: 99000163, 98008728
30000770: 1220922756, 98149122
30000771: 99000163, 98008728
30000772: 99000163, 98008728
30000773: 1220922756, 98149122
30000774: 99000614, 98244120
30000775: 99000163, 98008728
30000776: 99000163, 98008728
30000777: 99000163, 98008728
30000778: 99000163, 98008728
30000779: 1220922756, 98149122
30000780: 1220922756, 98149122
30000781: 1220922756, 98149122
30000782: 1220922756, 98149122
30000783: 99000163, 98008728
30000784: 1220922756, 98149122
30000785: 1220922756, 98149122
30000786: 99001003, 98065185
30000787: 99000163, 98008728
30000788: 1727758877, 98356064
30000789: 99001003, 98065185
30000790: 99001003, 98065185
30000791: 99001003, 98065185
30000792: 99000614, 98244120
30000793: 99001003, 98065185
30000794: 99001003, 98065185
30000795: 99001003, 98065185
30000796: 1220922756, 98149122
30000797: 99000163, 98008728
30000798: 1220922756, 98149122
30000799: 1220922756, 98149122
30000800: 1220922756, 98149122
30000801: 1220922756, 98149122
30000802: 99000163, 98008728
30000803: 1220922756, 98149122
30000804: 1220922756, 98149122
30000805: 99000163, 98008728
30000806: 99000163, 98008728
30000807: 99000163, 98008728
30000808: 1220922756, 98149122
30000809: 1220922756, 98149122
30000810: 1727758877, 98356064
30000811: 1411711376, 1139652088
30000812: 1220922756, 98149122
30000813: 1411711376, 1139652088
30000814: 99000163, 98008728
30000815: 99000163, 98008728
30000816: 99000163, 98008728
30000817: 99000163, 98008728
30000818: 99000163, 98008728
30000819: 99000163, 98008728
30000820: 99000163, 98008728
30000821: 99000163, 98008728
30000822: 99000163, 98008728
30000823: 99000163, 98008728
30000824: 99000163, 98008728
30000825: 99000163, 98008728
30000826: 1220922756, 98149122
30000827: 1220922756, 98149122
30000828: 1220922756, 98149122
30000829: 1220922756, 98149122
30000830: 1220922756, 98149122
30000831: 1411711376, 1139652088
30000832: 99000163, 98008728
30000833: 99000163, 98008728
30000834: 99000163, 98008728
30000835: 1411711376, 1139652088
30000836: 1411711376, 1139652088
30000837: 99000163, 98008728
30000838: 1220922756, 98149122
30000839: 1220922756, 98149122
30000840: 1220922756, 98149122
30000841: 1220922756, 98149122
30000842: 1220922756, 98149122
30000843: 1220922756, 98149122
30000844: 1220922756, 98149122
30000845: 1220922756, 98149122
30000846: 1695357456, 1667598016
30000847: 1695357456, 1667598016
30000848: 1695357456, 1667598016
30000849: 1695357456, 1667598016
30000850: 1695357456, 1667598016
30000851: 1006830534, 1371955702
30000852: 131511956, 125490663
30000853: 131511956, 125490663
30000854: 131511956, 125490663
30000855: 741557221, 644716789
30000856: 131511956, 125490663
30000857: 1354830081, 667531913
30000858: 1354830081, 667531913
30000859: 131511956, 125490663
30000860: 1354830081, 667531913
30000861: 1354830081, 667531913
30000862: 131511956, 125490663
30000863: 1354830081, 667531913
30000864: 1695357456, 1667598016
30000865: 1695357456, 1667598016
30000866: 131511956, 125490663
30000867: 1354830081, 667531913
30000868: 1695357456, 1667598016
30000869: 1695357456, 1667598016
30000870: 1354830081, 667531913
30000871: 99004425, 98315666
30000872: 1695357456, 1667598016
30000873: 131511956, 125490663
30000874: 131511956, 125490663
30000875: 131511956, 125490663
30000876: 131511956, 125490663
30000877: 131511956, 125490663
30000878: 131511956, 125490663
30000879: 1695357456, 1667598016
30000880: 131511956, 125490663
30000881: 1695357456, 1667598016
30000882: 150097440, 98139285
30000883: 131511956, 125490663
30000884: 1006830534, 1371955702
30000885: 1354830081, 667531913
30000886: 1695357456, 1667598016
30000887: 1695357456, 1667598016
30000888: 1695357456, 1667598016
30000889: 1695357456, 1667598016
30000890: 1695357456, 1667598016
30000891: 1695357456, 1667598016
30000892: 1695357456, 1667598016
30000893: 1695357456, 1667598016
30000894: 1695357456, 1667598016
30000895: 741557221, 644716789
30000896: 1695357456, 1667598016
30000897: 1695357456, 1667598016
30000898: 1354830081, 667531913
30000899: 1695357456, 1667598016
30000900: 500015, 500015
30000901: 500015, 500015
30000902: 500015, 500015
30000903: 500015, 500015
30000904: 500015, 500015
30000905: 500015, 500015
30000906: 500015, 500015
30000907: 500015, 500015
30000908: 500015, 500015
30000909: 500015, 500015
30000910: 500015, 500015
30000911: 500015, 500015
30000912: 500015, 500015
30000913: 500015, 500015
30000914: 500015, 500015
30000915: 500015, 500015
30000916: 500015, 500015
30000917: 500015, 500015
30000918: 500015, 500015
30000919: 500015, 500015
30000920: 500015, 500015
30000921: 500015, 500015
30000922: 500015, 500015
30000923: 500015, 500015
30000924: 500015, 500015
30000925: 500015, 500015
30000926: 500015, 500015
30000927: 500015, 500015
30000928: 500015, 500015
30000929: 500015, 500015
30000930: 500015, 500015
30000931: 500015, 500015
30000932: 500015, 500015
30000933: 500015, 500015
30000934: 500015, 500015
30000935: 500015, 500015
30000936: 500015, 500015
30000937: 500015, 500015
30000938: 500015, 500015
30000939: 500015, 500015
30000940: 500015, 500015
30000941: 500015, 500015
30000942: 500015, 500015
30000943: 500015, 500015
30000944: 500015, 500015
30000945: 500015, 500015
30000946: 500015, 500015
30000947: 500015, 500015
30000948: 500015, 500015
30000949: 500015, 500015
30000950: 500015, 500015
30000951: 500015, 500015
30000952: 500015, 500015
30000953: 500015, 500015
30000954: 500015, 500015
30000955: 500015, 500015
30000956: 500015, 500015
30000957: 500015, 500015
30000958: 500015, 500015
30000959: 500015, 500015
30000960: 500015, 500015
30000961: 500015, 500015
30000962: 500015, 500015
30000963: 500015, 500015
30000964: 500015, 500015
30000965: 500015, 500015
30000966: 500015, 500015
30000967: 500015, 500015
30000968: 500015, 500015
30000969: 500015, 500015
30000970: 500015, 500015
30000971: 500015, 500015
30000972: 500015, 500015
30000973: 500015, 500015
30000974: 500015, 500015
30000975: 500015, 500015
30000976: 500015, 500015
30000977: 500015, 500015
30000978: 500015, 500015
30000979: 500015, 500015
30000980: 500015, 500015
30000981: 500015, 500015
30000982: 500015, 500015
30000983: 500015, 500015
30000984: 500015, 500015
30000985: 500015, 500015
30000986: 500015, 500015
30000987: 500015, 500015
30000988: 500015, 500015
30000989: 500015, 500015
30000990: 500015, 500015
30000991: 500015, 500015
30000992: 500015, 500015
30000993: 500015, 500015
30000994: 500015, 500015
30000995: 500015, 500015
30000996: 500015, 500015
30000997: 500015, 500015
30000998: 500015, 500015
30000999: 500015, 500015
30001000: 500015, 500015
30001001: 500011, 500011
30001002: 500011, 500011
30001003: 500011, 500011
30001004: 500011, 500011
30001005: 500011, 500011
30001006: 500011, 500011
30001007: 500011, 500011
30001008: 500011, 500011
30001009: 500011, 500011
30001010: 500011, 500011
30001011: 500011, 500011
30001012: 500011, 500011
30001013: 500011, 500011
30001014: 500011, 500011
30001015: 500011, 500011
30001016: 500011, 500011
30001017: 500011, 500011
30001018: 500011, 500011
30001019: 500011, 500011
30001020: 500011, 500011
30001021: 500011, 500011
30001022: 500011, 500011
30001023: 500011, 500011
30001024: 500011, 500011
30001025: 500011, 500011
30001026: 500011, 500011
30001027: 500011, 500011
30001028: 500011, 500011
30001029: 500011, 500011
30001030: 500011, 500011
30001031: 500011, 500011
30001032: 500011, 500011
30001033: 500011, 500011
30001034: 500011, 500011
30001035: 500011, 500011
30001036: 500011, 500011
30001037: 500011, 500011
30001038: 500011, 500011
30001039: 500011, 500011
30001040: 500011, 500011
30001041: 500011, 500011
30001042: 500011, 500011
30001043: 500011, 500011
30001044: 500011, 500011
30001045: 500011, 500011
30001046: 500011, 500011
30001047: 500011, 500011
30001048: 500011, 500011
30001049: 500011, 500011
30001050: 500011, 500011
30001051: 99003006, 98181032
30001052: 99003006, 98181032
30001053: 99003006, 98181032
30001054: 99003006, 98181032
30001055: 99003006, 98181032
30001056: 99003006, 98181032
30001057: 99003006, 98181032
30001058: 99003006, 98181032
30001059: 99003006, 98181032
30001060: 99003006, 98181032
30001061: 99003006, 98181032
30001062: 99003500, 1802019581
30001063: 99003006, 98181032
30001064: 99003006, 98181032
30001065: 99003006, 98181032
30001066: 99003006, 98181032
30001067: 99003006, 98181032
30001068: 99003006, 98181032
30001069: 99003006, 98181032
30001070: 99003006, 98181032
30001071: 99003006, 98181032
30001072: 99003006, 98181032
30001073: 99003006, 98181032
30001074: 99003006, 98181032
30001075: 99003006, 98181032
30001076: 99003006, 98181032
30001077: 99003006, 98181032
30001078: 99003006, 98181032
30001079: 99003006, 98181032
30001080: 99003006, 98181032
30001081: 99003006, 98181032
30001082: 99003006, 98181032
30001083: 99003006, 98181032
30001084: 99003006, 98181032
30001085: 99003006, 98181032
30001086: 99003006, 98181032
30001087: 99003006, 98181032
30001088: 99003006, 98181032
30001089: 99003006, 98181032
30001090: 99003006, 98181032
30001091: 99003006, 98181032
30001092: 99003006, 98181032
30001093: 99003006, 98181032
30001094: 99003006, 98181032
30001095: 99003006, 98181032
30001096: 99003006, 98181032
30001097: 99003006, 98181032
30001098: 99003006, 98181032
30001099: 99003006, 98181032
30001100: 99003006, 98181032
30001101: 99003006, 98181032
30001102: 99003006, 98181032
30001103: 99003006, 98181032
30001104: 99003006, 98181032
30001105: 99003006, 98181032
30001106: 99003006, 98181032
30001107: 99003006, 98181032
30001108: 99003006, 98181032
30001109: 99003006, 98181032
30001110: 99003006, 98181032
30001111: 99003006, 98181032
30001112: 99003006, 98181032
30001113: 99003006, 98181032
30001114: 99003006, 98181032
30001115: 99003006, 98181032
30001116: 99003006, 98181032
30001117: 99003006, 98181032
30001118: 99003006, 98181032
30001119: 99003006, 98181032
30001120: 99003006, 98181032
30001121: 99003006, 98181032
30001122: 99003006, 98181032
30001123: 99003006, 98181032
30001124: 99003006, 98181032
30001125: 99003006, 98181032
30001126: 99003006, 98181032
30001127: 99003006, 98181032
30001128: 99003006, 98181032
30001129: 99003006, 98181032
30001130: 99003006, 98181032
30001131: 99003006, 98181032
30001132: 99003006, 98181032
30001133: 99003006, 98181032
30001134: 99003006, 98181032
30001135: 99003006, 98181032
30001136: 99003006, 98181032
30001137: 99003006, 98181032
30001138: 99003006, 98181032
30001139: 99003006, 98181032
30001140: 99003006, 98181032
30001141: 99003006, 98181032
30001142: 99003006, 98181032
30001143: 99003006, 98181032
30001144: 99003006, 98181032
30001145: 99003006, 98181032
30001146: 99003006, 98181032
30001147: 99003006, 98181032
30001148: 99003006, 98181032
30001149: 99003006, 98181032
30001150: 99003006, 98181032
30001151: 99003006, 98181032
30001152: 99003006, 98181032
30001153: 99003214, 98275510
30001154: 99003214, 98275510
30001155: 386292982, 425883056
30001156: 99003214, 98275510
30001157: 1727758877, 1727573569
30001158: 99001904, 98007439
30001159: 99003214, 98275510
30001160: 99003214, 98275510
30001161: 99003214, 98275510
30001162: 99003214, 98275510
30001163: 99003214, 98275510
30001164: 99003214, 98275510
30001165: 99003214, 98275510
30001166: 99003214, 98275510
30001167: 99003214, 98275510
30001168: 99003214, 98275510
30001169: 99003214, 98275510
30001170: 386292982, 302750157
30001171: 386292982, 673319797
30001172: 99001904, 98007439
30001173: 99001904, 98007439
30001174: 386292982, 828800677
30001175: 99001904, 98007439
30001176: 99003214, 98275510
30001177: 99003214, 98275510
30001178: 498125261, 1018389948
30001179: 99003393, 311724580
30001180: 99001904, 98007439
30001181: 498125261, 693378155
30001182: 99003214, 98275510
30001183: 99001904, 98007439
30001184: 99001904, 98354233
30001185: 99001904, 98007439
30001186: 99001904, 98007439
30001187: 99001904, 98354233
30001188: 99003214, 98275510
30001189: 99003214, 98275510
30001190: 99003214, 98275510
30001191: 99003214, 98275510
30001192: 99003214, 98275510
30001193: 99003214, 98275510
30001194: 99003214, 98275510
30001195: 99003214, 98275510
30001196: 99003214, 98275510
30001197: 99003214, 98275510
30001198: 99003214, 98275510
30001199: 99003214, 98275510
30001200: 99003214, 98275510
30001201: 99003214, 98275510
30001202: 99003214, 98275510
30001203: 99003214, 98275510
30001204: 498125261, 1018389948
30001205: 99001904, 98007439
30001206: 99003541, 98175744
30001207: 386292982, 673319797
30001208: 99003541, 98175744
30001209: 99003214, 98275510
30001210: 99003214, 98275510
30001211: 99003214, 98275510
30001212: 1727758877, 1070320653
30001213: 99003214, 98275510
30001214: 99003214, 98275510
30001215: 99003214, 98275510
30001216: 498125261, 1018389948
30001217: 99003214, 98275510
30001218: 99003214, 98275510
30001219: 99003214, 98275510
30001220: 99003214, 98275510
30001221: 1727758877, 1727573569
30001222: 99003393, 311724580
30001223: 99003214, 98275510
30001224: 99003214, 98275510
30001225: 99003214, 98275510
30001226: 240835459, 98339792
30001227: 240835459, 98339792
30001228: 99003214, 98275510
30001229: 99003214, 98275510
30001230: 99003214, 98275510
30001231: 99003541, 98175744
30001232: 99002367, 98132485
30001233: 99002367, 98132485
30001234: 240835459, 98339792
30001235: 1988009451, 1258065347
30001236: 154104258, 1613831809
30001237: 99002367, 98132485
30001238: 99003214, 98275510
30001239: 99003214, 98275510
30001240: 99003214, 98275510
30001241: 99003214, 98275510
30001242: 99003214, 98275510
30001243: 99003214, 98275510
30001244: 99003214, 98275510
30001245: 99003214, 98275510
30001246: 99003214, 98275510
30001247: 99000739, 544497016
30001248: 99003393, 311724580
30001249: 99003214, 98275510
30001250: 99003214, 98275510
30001251: 99003214, 98275510
30001252: 99000739, 544497016
30001253: 99003214, 98275510
30001254: 99003214, 98275510
30001255: 99000739, 544497016
30001256: 1727758877, 1070320653
30001257: 99003214, 98275510
30001258: 99003393, 311724580
30001259: 99003214, 98275510
30001260: 99000739, 544497016
30001261: 500010, 500010
30001262: 500010, 500010
30001263: 500010, 500010
30001264: 500010, 500010
30001265: 500010, 500010
30001266: 500010, 500010
30001267: 500010, 500010
30001268: 500010, 500010
30001269: 500010, 500010
30001270: 500010, 500010
30001271: 500010, 500010
30001272: 500010, 500010
30001273: 500010, 500010
30001274: 500010, 500010
30001275: 500010, 500010
30001276: 500010, 500010
30001277: 500010, 500010
30001278: 500010, 500010
30001279: 500010, 500010
30001280: 500010, 500010
30001281: 500010, 500010
30001282: 500010, 500010
30001283: 500010, 500010
30001284: 500010, 500010
30001285: 500010, 500010
30001286: 500010, 500010
30001287: 500010, 500010
30001288: 500010, 500010
30001289: 500010, 500010
30001290: 500010, 500010
30001291: 500010, 500010
30001292: 500010, 500010
30001293: 500010, 500010
30001294: 500010, 500010
30001295: 500010, 500010
30001296: 500010, 500010
30001297: 500010, 500010
30001298: 500010, 500010
30001299: 500010, 500010
30001300: 500010, 500010
30001301: 500010, 500010
30001302: 500010, 500010
30001303: 500010, 500010
30001304: 500010, 500010
30001305: 500010, 500010
30001306: 500010, 500010
30001307: 500010, 500010
30001308: 500010, 500010
30001309: 500010, 500010
30001310: 500010, 500010
30001311: 500010, 500010
30001312: 500010, 500010
30001313: 500010, 500010
30001314: 500010, 500010
30001315: 500010, 500010
30001316: 500010, 500010
30001317: 500010, 500010
30001318: 500010, 500010
30001319: 500010, 500010
30001320: 500010, 500010
30001321: 500010, 500010
30001322: 500010, 500010
30001323: 500010, 500010
30001324: 500010, 500010
30001325: 500010, 500010
30001326: 500010, 500010
30001327: 500010, 500010
30001328: 500010, 500010
30001329: 500010, 500010
30001330: 500010, 500010
30001331: 500010, 500010
30001332: 500010, 500010
30001333: 500010, 500010
30001334: 500010, 500010
30001335: 500010, 500010
30001336: 500010, 500010
30001337: 500010, 500010
30001338: 500010, 500010
30001339: 500010, 500010
30001340: 500010, 500010
30001341: 500010, 500010
30001342: 500010, 500010
30001343: 500010, 500010
30001344: 500010, 500010
30001345: 500010, 500010
30001346: 500010, 500010
30001347: 500010, 500010
30001348: 500010, 500010
30001349: 500010, 500010
30001350: 500010, 500010
30001351: 500010, 500010
30001352: 500010, 500010
30001353: 500010, 500010
30001354: 500010, 500010
30001355: 500010, 500010
30001356: 500001, 500001
30001357: 500001, 500001
30001358: 500001, 500001
30001359: 500001, 500001
30001360: 500001, 500001
30001361: 500001, 500001
30001362: 500001, 500001
30001363: 500001, 500001
30001364: 500001, 500001
30001365: 500001, 500001
30001366: 500001, 500001
30001367: 500001, 500001
30001368: 500001, 500001
30001369: 500001, 500001
30001370: 500001, 500001
30001371: 500001, 500001
30001372: 500001, 500001
30001373: 500001, 500001
30001374: 500001, 500001
30001375: 500001, 500001
30001376: 500001, 500001
30001377: 500001, 500001
30001378: 500001, 500001
30001379: 500001, 500001
30001380: 500001, 500001
30001381: 500001, 500001
30001382: 500001, 500001
30001383: 500001, 500001
30001384: 500001, 500001
30001385: 500001, 500001
30001386: 500001, 500001
30001387: 500001, 500001
30001388: 500001, 500001
30001389: 500001, 500001
30001390: 500001, 500001
30001391: 500001, 500001
30001392: 500001, 500001
30001393: 500001, 500001
30001394: 500001, 500001
30001395: 500001, 500001
30001396: 500001, 500001
30001397: 500001, 500001
30001398: 500001, 500001
30001399: 500001, 500001
30001400: 500001, 500001
30001401: 500001, 500001
30001402: 500001, 500001
30001403: 500001, 500001
30001404: 500001, 500001
30001405: 500001, 500001
30001406: 500001, 500001
30001407: 500001, 500001
30001408: 500001, 500001
30001409: 500001, 500001
30001410: 500001, 500001
30001411: 500001, 500001
30001412: 500001, 500001
30001413: 500001, 500001
30001414: 500001, 500001
30001415: 500001, 500001
30001416: 500001, 500001
30001417: 500001, 500001
30001418: 500001, 500001
30001419: 500001, 500001
30001420: 500001, 500001
30001421: 500001, 500001
30001422: 500001, 500001
30001423: 500001, 500001
30001424: 500001, 500001
30001425: 500001, 500001
30001426: 500001, 500001
30001427: 500001, 500001
30001428: 500001, 500001
30001429: 500001, 500001
30001430: 500001, 500001
30001431: 500001, 500001
30001432: 500001, 500001
30001433: 500001, 500001
30001434: 500001, 500001
30001435: 500001, 500001
30001436: 500001, 500001
30001437: 500001, 500001
30001438: 500001, 500001
30001439: 500001, 500001
30001440: 500001, 500001
30001441: 500001, 500001
30001442: 500001, 500001
30001443: 500001, 500001
30001444: 500001, 500001
30001445: 500001, 500001
30001446: 500001, 500001
30001447: 500001, 500001
30001448: 500001, 500001
30001449: 500005, 500005
30001450: 500005, 500005
30001451: 500005, 500005
30001452: 500005, 500005
30001453: 500005, 500005
30001454: 500005, 500005
30001455: 500005, 500005
30001456: 500005, 500005
30001457: 500005, 500005
30001458: 500005, 500005
30001459: 500005, 500005
30001460: 500005, 500005
30001461: 500005, 500005
30001462: 500005, 500005
30001463: 500005, 500005
30001464: 500005, 500005
30001465: 500005, 500005
30001466: 500005, 500005
30001467: 500005, 500005
30001468: 500005, 500005
30001469: 500005, 500005
30001470: 500005, 500005
30001471: 500005, 500005
30001472: 500005, 500005
30001473: 500005, 500005
30001474: 500005, 500005
30001475: 500005, 500005
30001476: 500005, 500005
30001477: 500005, 500005
30001478: 500005, 500005
30001479: 500005, 500005
30001480: 500005, 500005
30001481: 500005, 500005
30001482: 500005, 500005
30001483: 500005, 500005
30001484: 500005, 500005
30001485: 500005, 500005
30001486: 500005, 500005
30001487: 500005, 500005
30001488: 500005, 500005
30001489: 500005, 500005
30001490: 500005, 500005
30001491: 500005, 500005
30001492: 500005, 500005
30001493: 500005, 500005
30001494: 500005, 500005
30001495: 500005, 500005
30001496: 500005, 500005
30001497: 500005, 500005
30001498: 500005, 500005
30001499: 500005, 500005
30001500: 500005, 500005
30001501: 500005, 500005
30001502: 500005, 500005
30001503: 500005, 500005
30001504: 500005, 500005
30001505: 500005, 500005
30001506: 500005, 500005
30001507: 500005, 500005
30001508: 500005, 500005
30001509: 500005, 500005
30001510: 500005, 500005
30001511: 500005, 500005
30001512: 500005, 500005
30001513: 500005, 500005
30001514: 500005, 500005
30001515: 500005, 500005
30001516: 500005, 500005
30001517: 500005, 500005
30001518: 500005, 500005
30001519: 500005, 500005
30001520: 500005, 500005
30001521: 500005, 500005
30001522: 500005, 500005
30001523: 500005, 500005
30001524: 500005, 500005
30001525: 500005, 500005
30001526: 99001517, 98008268
30001527: 99001517, 98008268
30001528: 99001517, 98008268
30001529: 99003006, 98181032
30001530: 99001517, 98008268
30001531: 99001517, 98008268
30001532: 99000163, 98008728
30001533: 99000163, 98008728
30001534: 99000163, 98008728
30001535: 99000163, 98008728
30001536: 99000163, 98008728
30001537: 99000163, 98008728
30001538: 99000163, 98008728
30001539: 99000163, 98008728
30001540: 99000163, 98008728
30001541: 99003006, 98181032
30001542: 99000163, 98008728
30001543: 99001517, 98008268
30001544: 99001517, 98008268
30001545: 1463354890, 1463841432
30001546: 1727758877, 323998201
30001547: 99001517, 98008268
30001548: 99000163, 98008728
30001549: 99000163, 98008728
30001550: 99000163, 98008728
30001551: 99004821, 98355693
30001552: 99000163, 98008728
30001553: 99000163, 98008728
30001554: 99000163, 98008728
30001555: 99000163, 98008728
30001556: 99000163, 98008728
30001557: 99000163, 98008728
30001558: 99000163, 98008728
30001559: 99000163, 98008728
30001560: 99000163, 98008728
30001561: 99003006, 98181032
30001562: 99001517, 98008268
30001563: 99003006, 98181032
30001564: 99003006, 98181032
30001565: 99003006, 98181032
30001566: 99001517, 98008268
30001567: 99001517, 98008268
30001568: 99000163, 98008728
30001569: 99000163, 98008728
30001570: 99000163, 98008728
30001571: 99000163, 98008728
30001572: 99000163, 98008728
30001573: 0, 0
30001574: 99003006, 98181032
30001575: 99003006, 98181032
30001576: 99003006, 98181032
30001577: 99003006, 98181032
30001578: 99003006, 98181032
30001579: 99000163, 98008728
30001580: 99000163, 98008728
30001581: 1727758877, 1727573569
30001582: 99000163, 98008728
30001583: 99000163, 98008728
30001584: 99000163, 98008728
30001585: 99000163, 98008728
30001586: 99003006, 98181032
30001587: 99003006, 98181032
30001588: 99003006, 98181032
30001589: 99003006, 98181032
30001590: 99003006, 98181032
30001591: 99003006, 98181032
30001592: 99000163, 98008728
30001593: 99003006, 98181032
30001594: 99000163, 98008728
30001595: 673381830, 944838017
30001596: 673381830, 944838017
30001597: 99000163, 98008728
30001598: 500005, 500005
30001599: 500005, 500005
30001600: 500005, 500005
30001601: 500005, 500005
30001602: 500005, 500005
30001603: 500005, 500005
30001604: 500005, 500005
30001605: 500005, 500005
30001606: 500005, 500005
30001607: 500005, 500005
30001608: 500005, 500005
30001609: 500005, 500005
30001610: 500005, 500005
30001611: 500005, 500005
30001612: 500005, 500005
30001613: 500005, 500005
30001614: 500005, 500005
30001615: 500005, 500005
30001616: 500005, 500005
30001617: 500005, 500005
30001618: 500005, 500005
30001619: 500005, 500005
30001620: 500005, 500005
30001621: 500005, 500005
30001622: 500005, 500005
30001623: 500005, 500005
30001624: 500005, 500005
30001625: 500005, 500005
30001626: 500005, 500005
30001627: 500005, 500005
30001628: 500005, 500005
30001629: 500005, 500005
30001630: 500005, 500005
30001631: 500005, 500005
30001632: 500005, 500005
30001633: 500005, 500005
30001634: 500005, 500005
30001635: 500005, 500005
30001636: 500005, 500005
30001637: 500005, 500005
30001638: 500005, 500005
30001639: 500005, 500005
30001640: 500005, 500005
30001641: 500005, 500005
30001642: 500005, 500005
30001643: 500005, 500005
30001644: 500003, 500003
30001645: 500003, 500003
30001646: 500003, 500003
30001647: 500003, 500003
30001648: 500003, 500003
30001649: 500003, 500003
30001650: 500003, 500003
30001651: 500003, 500003
30001652: 500003, 500003
30001653: 500003, 500003
30001654: 500003, 500003
30001655: 500003, 500003
30001656: 500003, 500003
30001657: 500003, 500003
30001658: 500003, 500003
30001659: 500003, 500003
30001660: 500003, 500003
30001661: 500003, 500003
30001662: 500003, 500003
30001663: 500003, 500003
30001664: 500003, 500003
30001665: 500003, 500003
30001666: 500003, 500003
30001667: 500003, 500003
30001668: 500003, 500003
30001669: 500003, 500003
30001670: 500003, 500003
30001671: 500003, 500003
30001672: 500003, 500003
30001673: 500003, 500003
30001674: 500003, 500003
30001675: 500003, 500003
30001676: 500003, 500003
30001677: 500003, 500003
30001678: 500003, 500003
30001679: 500003, 500003
30001680: 500003, 500003
30001681: 500003, 500003
30001682: 500003, 500003
30001683: 500003, 500003
30001684: 500003, 500003
30001685: 500003, 500003
30001686: 500003, 500003
30001687: 500003, 500003
30001688: 500003, 500003
30001689: 500003, 500003
30001690: 500003, 500003
30001691: 500003, 500003
30001692: 500003, 500003
30001693: 500003, 500003
30001694: 500003, 500003
30001695: 500003, 500003
30001696: 500003, 500003
30001697: 500003, 500003
30001698: 500003, 500003
30001699: 500003, 500003
30001700: 500003, 500003
30001701: 500003, 500003
30001702: 500003, 500003
30001703: 500003, 500003
30001704: 500003, 500003
30001705: 500003, 500003
30001706: 500003, 500003
30001707: 500003, 500003
30001708: 500003, 500003
30001709: 500003, 500003
30001710: 500003, 500003
30001711: 500003, 500003
30001712: 500003, 500003
30001713: 500003, 500003
30001714: 500003, 500003
30001715: 500003, 500003
30001716: 500003, 500003
30001717: 500003, 500003
30001718: 500003, 500003
30001719: 500003, 500003
30001720: 500003, 500003
30001721: 500003, 500003
30001722: 500003, 500003
30001723: 500003, 500003
30001724: 500003, 500003
30001725: 500003, 500003
30001726: 500003, 500003
30001727: 500003, 500003
30001728: 500003, 500003
30001729: 500003, 500003
30001730: 500003, 500003
30001731: 500003, 500003
30001732: 500003, 500003
30001733: 500003, 500003
30001734: 500003, 500003
30001735: 500003, 500003
30001736: 500003, 500003
30001737: 500003, 500003
30001738: 500003, 500003
30001739: 500003, 500003
30001740: 500003, 500003
30001741: 500003, 500003
30001742: 500003, 500003
30001743: 99003500, 1802019581
30001744: 99003500, 1802019581
30001745: 99003500, 1802019581
30001746: 99003500, 1802019581
30001747: 99003500, 1802019581
30001748: 99003500, 1802019581
30001749: 99003500, 1802019581
30001750: 99003500, 1802019581
30001751: 99003500, 1802019581
30001752: 99003500, 1802019581
30001753: 99003500, 1802019581
30001754: 99003500, 1802019581
30001755: 99003500, 1802019581
30001756: 99003500, 1802019581
30001757: 99003500, 1802019581
30001758: 99003500, 1802019581
30001759: 99003500, 1802019581
30001760: 99003500, 1802019581
30001761: 99003500, 1802019581
30001762: 99003500, 1802019581
30001763: 99003500, 1802019581
30001764: 99003500, 1802019581
30001765: 99003500, 1802019581
30001766: 99003500, 1802019581
30001767: 99003500, 1802019581
30001768: 99003500, 1802019581
30001769: 99003500, 1802019581
30001770: 99003500, 1802019581
30001771: 99003500, 1802019581
30001772: 99003500, 1802019581
30001773: 99003500, 1802019581
30001774: 99003500, 1802019581
30001775: 99003500, 1802019581
30001776: 99003500, 1802019581
30001777: 99003500, 1802019581
30001778: 99003500, 1802019581
30001779: 99003500, 1802019581
30001780: 99003500, 1802019581
30001781: 99003500, 1802019581
30001782: 99003500, 1802019581
30001783: 99003500, 1802019581
30001784: 99003500, 1802019581
30001785: 99003500, 1802019581
30001786: 99003500, 1802019581
30001787: 99003500, 1802019581
30001788: 99003500, 1802019581
30001789: 99003500, 1802019581
30001790: 99003500, 1802019581
30001791: 99003500, 1802019581
30001792: 99003500, 1802019581
30001793: 99003500, 1802019581
30001794: 99003500, 1802019581
30001795: 99003500, 1802019581
30001796: 99003500, 1802019581
30001797: 99003500, 1802019581
30001798: 99003500, 1802019581
30001799: 99003500, 1802019581
30001800: 99003500, 1802019581
30001801: 99003500, 1802019581
30001802: 99003500, 1802019581
30001803: 99003500, 1802019581
30001804: 99003500, 1802019581
30001805: 99003500, 1802019581
30001806: 99005014, 98299208
30001807: 99003500, 1802019581
30001808: 99003500, 1802019581
30001809: 99003500, 1802019581
30001810: 99003500, 1802019581
30001811: 99003500, 1802019581
30001812: 99003500, 1802019581
30001813: 99003500, 1802019581
30001814: 99003500, 1802019581
30001815: 99003500, 1802019581
30001816: 99003500, 1802019581
30001817: 99003500, 1802019581
30001818: 99003500, 1802019581
30001819: 99003500, 1802019581
30001820: 99003500, 1802019581
30001821: 99003500, 1802019581
30001822: 99003500, 1802019581
30001823: 99003500, 1802019581
30001824: 99003500, 1802019581
30001825: 99003500, 1802019581
30001826: 1727758877, 1727573569
30001827: 99003500, 1802019581
30001828: 99003500, 1802019581
30001829: 99003500, 1802019581
30001830: 99003500, 1802019581
30001831: 500019, 500019
30001832: 500019, 500019
30001833: 500019, 500019
30001834: 500019, 500019
30001835: 500019, 500019
30001836: 500019, 500019
30001837: 500019, 500019
30001838: 500019, 500019
30001839: 500019, 500019
30001840: 500019, 500019
30001841: 500019, 500019
30001842: 500019, 500019
30001843: 500019, 500019
30001844: 500019, 500019
30001845: 500019, 500019
30001846: 500019, 500019
30001847: 500019, 500019
30001848: 500019, 500019
30001849: 500019, 500019
30001850: 500019, 500019
30001851: 500019, 500019
30001852: 500019, 500019
30001853: 500019, 500019
30001854: 500019, 500019
30001855: 500019, 500019
30001856: 500019, 500019
30001857: 500019, 500019
30001858: 500019, 500019
30001859: 500019, 500019
30001860: 500019, 500019
30001861: 500019, 500019
30001862: 500019, 500019
30001863: 500019, 500019
30001864: 500019, 500019
30001865: 500019, 500019
30001866: 500019, 500019
30001867: 500019, 500019
30001868: 500019, 500019
30001869: 500019, 500019
30001870: 500019, 500019
30001871: 500019, 500019
30001872: 500019, 500019
30001873: 500019, 500019
30001874: 500019, 500019
30001875: 500019, 500019
30001876: 500019, 500019
30001877: 500019, 500019
30001878: 500019, 500019
30001879: 500019, 500019
30001880: 500019, 500019
30001881: 500019, 500019
30001882: 500019, 500019
30001883: 500019, 500019
30001884: 500019, 500019
30001885: 500019, 500019
30001886: 500019, 500019
30001887: 500019, 500019
30001888: 500019, 500019
30001889: 500019, 500019
30001890: 500019, 500019
30001891: 500019, 500019
30001892: 500019, 500019
30001893: 500019, 500019
30001894: 500019, 500019
30001895: 500019, 500019
30001896: 500019, 500019
30001897: 500019, 500019
30001898: 500019, 500019
30001899: 500019, 500019
30001900: 500019, 500019
30001901: 500019, 500019
30001902: 500019, 500019
30001903: 500019, 500019
30001904: 500019, 500019
30001905: 500019, 500019
30001906: 500019, 500019
30001907: 500019, 500019
30001908: 500019, 500019
30001909: 500019, 500019
30001910: 500019, 500019
30001911: 500019, 500019
30001912: 500019, 500019
30001913: 500019, 500019
30001914: 500019, 500019
30001915: 500019, 500019
30001916: 500019, 500019
30001917: 500019, 500019
30001918: 500019, 500019
30001919: 500019, 500019
30001920: 500019, 500019
30001921: 500019, 500019
30001922: 500019, 500019
30001923: 500019, 500019
30001924: 500019, 500019
30001925: 500019, 500019
30001926: 500019, 500019
30001927: 500019, 500019
30001928: 500019, 500019
30001929: 500019, 500019
30001930: 500019, 500019
30001931: 500019, 500019
30001932: 500019, 500019
30001933: 500019, 500019
30001934: 500019, 500019
30001935: 500019, 500019
30001936: 500019, 500019
30001937: 500019, 500019
30001938: 500019, 500019
30001939: 500019, 500019
30001940: 500019, 500019
30001941: 500019, 500019
30001942: 500019, 500019
30001943: 500019, 500019
30001944: 500019, 500019
30001945: 500019, 500019
30001946: 500019, 500019
30001947: 500019, 500019
30001948: 500019, 500019
30001949: 500019, 500019
30001950: 500019, 500019
30001951: 500019, 500019
30001952: 500019, 500019
30001953: 500019, 500019
30001954: 500019, 500019
30001955: 500019, 500019
30001956: 500019, 500019
30001957: 500019, 500019
30001958: 500019, 500019
30001959: 500019, 500019
30001960: 500019, 500019
30001961: 500019, 500019
30001962: 500019, 500019
30001963: 131511956, 125490663
30001964: 741557221, 144833788
30001965: 131511956, 125490663
30001966: 131511956, 125490663
30001967: 131511956, 125490663
30001968: 131511956, 125490663
30001969: 1354830081, 667531913
30001970: 1354830081, 667531913
30001971: 1354830081, 667531913
30001972: 1354830081, 667531913
30001973: 1354830081, 667531913
30001974: 1354830081, 667531913
30001975: 1354830081, 667531913
30001976: 1354830081, 667531913
30001977: 500016, 500016
30001978: 500016, 500016
30001979: 500016, 500016
30001980: 500016, 500016
30001981: 500016, 500016
30001982: 500016, 500016
30001983: 500016, 500016
30001984: 1354830081, 667531913
30001985: 1354830081, 667531913
30001986: 1354830081, 667531913
30001987: 1354830081, 667531913
30001988: 679584932, 418183520
30001989: 1354830081, 667531913
30001990: 151380924, 1413898101
30001991: 1006830534, 1371955702
30001992: 1354830081, 667531913
30001993: 1354830081, 667531913
30001994: 1354830081, 667531913
30001995: 151380924, 1413898101
30001996: 1354830081, 667531913
30001997: 1354830081, 667531913
30001998: 1354830081, 667531913
30001999: 1354830081, 667531913
30002000: 1354830081, 667531913
30002001: 1354830081, 667531913
30002002: 151380924, 1413898101
30002003: 1354830081, 667531913
30002004: 500018, 500018
30002005: 500018, 500018
30002006: 500018, 500018
30002007: 500018, 500018
30002008: 500018, 500018
30002009: 500018, 500018
30002010: 1354830081, 667531913
30002011: 1354830081, 667531913
30002012: 1354830081, 667531913
30002013: 1354830081, 667531913
30002014: 1354830081, 667531913
30002015: 1354830081, 667531913
30002016: 131511956, 125490663
30002017: 131511956, 125490663
30002018: 131511956, 125490663
30002019: 131511956, 125490663
30002020: 131511956, 125490663
30002021: 131511956, 125490663
30002022: 131511956, 125490663
30002023: 679584932, 418183520
30002024: 679584932, 418183520
30002025: 1354830081, 667531913
30002026: 1354830081, 667531913
30002027: 679584932, 418183520
30002028: 679584932, 418183520
30002029: 131511956, 125490663
30002030: 131511956, 125490663
30002031: 131511956, 125490663
30002032: 131511956, 125490663
30002033: 131511956, 125490663
30002034: 131511956, 125490663
30002035: 131511956, 125490663
30002036: 1220174199, 506268234
30002037: 131511956, 125490663
30002038: 131511956, 125490663
30002039: 131511956, 125490663
30002040: 131511956, 125490663
30002041: 131511956, 125490663
30002042: 131511956, 125490663
30002043: 131511956, 125490663
30002044: 131511956, 125490663
30002045: 131511956, 125490663
30002046: 131511956, 125490663
30002047: 131511956, 125490663
30002048: 500002, 500002
30002049: 500002, 500002
30002050: 500002, 500002
30002051: 500002, 500002
30002052: 500002, 500002
30002053: 500002, 500002
30002054: 500002, 500002
30002055: 500002, 500002
30002056: 500002, 500002
30002057: 500002, 500002
30002058: 500002, 500002
30002059: 500002, 500002
30002060: 500002, 500002
30002061: 500002, 500002
30002062: 500002, 500002
30002063: 500002, 500002
30002064: 500002, 500002
30002065: 500002, 500002
30002066: 500002, 500002
30002067: 500002, 500002
30002068: 500002, 500002
30002069: 500002, 500002
30002070: 500002, 500002
30002071: 500002, 500002
30002072: 500002, 500002
30002073: 500002, 500002
30002074: 500002, 500002
30002075: 500002, 500002
30002076: 500002, 500002
30002077: 500002, 500002
30002078: 500002, 500002
30002079: 500002, 500002
30002080: 500002, 500002
30002081: 500002, 500002
30002082: 500002, 500002
30002083: 500002, 500002
30002084: 500002, 500002
30002085: 500002, 500002
30002086: 500002, 500002
30002087: 500002, 500002
30002088: 500002, 500002
30002089: 500002, 500002
30002090: 500002, 500002
30002091: 500002, 500002
30002092: 500002, 500002
30002093: 500002, 500002
30002094: 500002, 500002
30002095: 500002, 500002
30002096: 500002, 500002
30002097: 500002, 500002
30002098: 500002, 500002
30002099: 500002, 500002
30002100: 500002, 500002
30002101: 500002, 500002
30002102: 500002, 500002
30002103: 99000163, 98008728
30002104: 99000163, 98008728
30002105: 99000163, 98008728
30002106: 99000163, 98008728
30002107: 99000163, 98008728
30002108: 99000163, 98008728
30002109: 99000163, 98008728
30002110: 99000163, 98008728
30002111: 99000163, 98008728
30002112: 99000163, 98008728
30002113: 99000163, 98008728
30002114: 1727758877, 1727573569
30002115: 1463354890, 1463841432
30002116: 99000163, 98008728
30002117: 99000163, 98008728
30002118: 99000163, 98008728
30002119: 99000163, 98008728
30002120: 99000163, 98008728
30002121: 1147488332, 98001422
30002122: 99000163, 98008728
30002123: 1399057309, 98360644
30002124: 1399057309, 98360644
30002125: 1399057309, 98360644
30002126: 1399057309, 98360644
30002127: 1399057309, 98360644
30002128: 1399057309, 98360644
30002129: 99001954, 284395966
30002130: 99003216, 98199503
30002131: 1147488332, 98001422
30002132: 99002938, 458742701
30002133: 1399057309, 98360644
30002134: 1727758877, 1727573569
30002135: 1463354890, 98285233
30002136: 386292982, 1941177176
30002137: 99000163, 98008728
30002138: 99000163, 98008728
30002139: 99003216, 98199503
30002140: 99000163, 98008728
30002141: 1727758877, 1727573569
30002142: 99000163, 98008728
30002143: 1463354890, 1463841432
30002144: 99000163, 98008728
30002145: 1463354890, 1463841432
30002146: 99000163, 98008728
30002147: 99000163, 98008728
30002148: 1463354890, 1463841432
30002149: 99000163, 98008728
30002150: 99000163, 98008728
30002151: 99000163, 98008728
30002152: 99000163, 98008728
30002153: 99000163, 98008728
30002154: 99000163, 98008728
30002155: 1900696668, 1753357224
30002156: 386292982, 828800677
30002157: 1900696668, 1753357224
30002158: 99000163, 98008728
30002159: 99003581, 98194671
30002160: 99000163, 98008728
30002161: 99000163, 98008728
30002162: 1727758877, 1727573569
30002163: 99000163, 98008728
30002164: 1463354890, 1463841432
30002165: 1399057309, 98360644
30002166: 1399057309, 98360644
30002167: 99003216, 98199503
30002168: 1463354890, 1340454813
